…
data <- 
  weunic %>% 
  rename_all(str_to_lower) %>% 
  filter(
    year %in% c(2010, 2016), 
    vaccine == "dtp3", 
    country %in% countries_of_interest
  ) %>% 
  select(wuenic, year, country)

data 
```

    ## # A tibble: 22 x 3
    ##    wuenic  year country                         
    ##     <int> <int> <chr>                           
    ##  1     66  2010 Afghanistan                     
    ##  2     65  2016 Afghanistan                     
    ##  3     60  2010 Democratic Republic of the Congo
    ##  4     79  2016 Democratic Republic of the Congo
    ##  5     61  2010 Ethiopia                        
    ##  6     77  2016 Ethiopia                        
    ##  7     66  2010 Haiti                           
    ##  8     58  2016 Haiti                           
    ##  9     74  2010 Iraq                            
    ## 10     63  2016 Iraq                            
    ## # ... with 12 more rows
…
